{
	"name":{
		"gchar":"/"
	},
	"width":{
		"gfloat":40.0
	},
	"height":{
		"gfloat":58.0
	},
	"normal-image":{
		"gchararray":"bt_bg_key_slash_IN.png"
	},
	"pressed-image":{
		"gchararray":"bt_bg_key_slash_AC.png"
	},
	"type":{
		"gchar":"text"
	},
	"x":{
		"gfloat":0.0
	},
	"y":{
		"gfloat":58.0
	},
	"default-text":{
		"gchar":"/"
	},
    "shift-text":{
		"gchar":"/"
	},
	"symbol-text":{
		"gchar":"/"
	},
    "long-press-enabled":{
        "gboolean":true
    }
}
