{
	"name":{
		"gchar":"BKSP"
	},
	"width":{
		"gfloat":60.0
	},
	"height":{
		"gfloat":66.0
	},
	"normal-image":{
		"gchararray":"bt_bg_key_normal.png"
	},
	"pressed-image":{
		"gchararray":"bt_bg_key_pressed.png"
	},
	"x":{
		"gfloat":590.0
	},
	"y":{
		"gfloat":62.0
	},
	"default-text":{
		"gchar":"←"
	},
    "font-type":{
        "gchar":"DejaVuSansCondensed 24px"
    },
    "long-press-enabled":{
        "gboolean":true
    }
}
