{
	"1":{
		"x":{
			"gfloat":281.0
		}
	},
	"2":{
		"y":{
			"gfloat":50.0
		}
	},
	"3":{
		"header-left-icon":{
			"gboolean": true
		}
	},
	"4":{
		"header-right-icon":{
			"gboolean": false
		}
	},
	"5":{
                "list-roller":{
                        "gboolean":true
                }
     },
	"6":{
		"fix-roller":{
			"gboolean":true 
		}
	},
	"7":{
		"item-type":{
			"GType":"MildenhallSampleItem"
		}
	}
         
}	
