{
	"name":{
		"gchar":"*"
	},
	"width":{
		"gfloat":196.0
	},
	"height":{
		"gfloat":65.0
	},
	"normal-image":{
		"gchararray":"dial_pad_asterisk.png"
	},
	"pressed-image":{
		"gchararray":"dial_pad_asterisk_pressed.png"
	},
	"x":{
		"gfloat":0.0
	},
	"y":{
		"gfloat":197.0
	},
	"default-text":{
		"gchar":""
	},
	"shift-text":{
		"gchar":"C"
	},
	"symbol-text":{
		"gchar":"_"
	},
    "long-press-enabled":{
        "gboolean":true
    }
}
