{
	"name":{
		"gchar":"9"
	},
	"width":{
		"gfloat":195.0
	},
	"height":{
		"gfloat":64.0
	},
	"normal-image":{
		"gchararray":"dial_pad_9.png"
	},
	"pressed-image":{
		"gchararray":"dial_pad_9_pressed.png"
	},
	"x":{
		"gfloat":393.0
	},
	"y":{
		"gfloat":132.0
	},
	"default-text":{
		"gchar":""
	},
	"shift-text":{
		"gchar":"D"
	},
	"symbol-text":{
		"gchar":"”"
	},
    "long-press-enabled":{
        "gboolean":true
    }
}
