{
        "rolls-normal-seamless":{    
                "gchararray":"progress_bar_rolls_normal_seamless.png"
        },
        "bg-play-normal":{    
                "gchararray":"bt_bg_play_normal.png"
        },
        "bg-play-pressed":{    
                "gchararray":"bt_bg_play_pressed.png"
        },
        "icon-play":{    
                "gchararray":"icon_play.png"
        },
        "radio-stop-ac":{    
                "gchararray":"icon_radio_stop_AC.png"
        },
        "icon-pause":{    
                "gchararray":"icon_pause.png"
        },
		"fill-bar-color":{
                "gchararray":"#FFFFFFFF"
        }, 
		"slider-color":{
		"gchararray":"#98A9B3CC"
		},
		"line-color":{
		"gchararray":"#FFFFFF33"
		}
}
