{
        "menu-bg-single-normal":{    
                "gchararray":"bt_bg_single_normal.png"
        },
        "menu-bg-single-pressed":{    
                "gchararray":"bt_bg_single_pressed.png"
        },
        "menu-bg-open-normal":{    
                "gchararray":"bt_bg_multipleclosed_normal.png"
        },
        "menu-bg-open-pressed":{    
                "gchararray":"bt_bg_multipleclosed_pressed.png"
        },
        "menu-bg-closed-normal":{    
                "gchararray":"bt_bg_multipleopen_normal.png"
        },
        "menu-bg-closed-pressed":{    
                "gchararray":"bt_bg_multipleopen_pressed.png"
        },
        "views-bg-single-normal":{    
                "gchararray":"bt_bg_view_single_normal.png"
        },
        "views-bg-single-pressed":{    
                "gchararray":"bt_bg_view_single_pressed.png"
        },
        "views-bg-open-normal":{    
                "gchararray":"bt_bg_view_multipleclosed_normal.png"
        },
        "views-bg-open-pressed":{    
                "gchararray":"bt_bg_view_multipleclosed_pressed.png"
        },
        "views-bg-closed-normal":{    
                "gchararray":"bt_bg_view_multipleopen_normal.png"
        },
        "views-bg-closed-pressed":{    
                "gchararray":"bt_bg_view_multipleopen_pressed.png"
        },
        "menu-arrow-left":{    
                "gchararray":"arrow_left_normal.png"
        },
        "menu-arrow-right":{    
                "gchararray":"arrow_right_normal.png"
        },
        "views-arrow-left":{    
                "gchararray":"arrow_left_view.png"
        },
        "views-arrow-right":{    
                "gchararray":"arrow_right_view.png"
        },
	"button-inactive-color":{
                "gchararray":"#708090FF"
        }, 
	"tooltip-rect-color":{
		"gchararray":"#CFD9DED5"
	},
	"tooltip-inactive-rect-color":{
		"gchararray":"#98A9B3FF"
	},
	"tooltip-inactive-font-color":{
                "gchararray":"#3D4042FF"
        }, 
	"tooltip-font-color":{
		"gchararray":"#000000FF"
	},
	"tooltip-font":{
                "gchararray":"DejaVuSansCondensed 28px"
        },
	"tooltip-font-width":{
                "gint":28
        },
	"tooltip-animation-duration":{
                "gint":1000
        }
}
